<svg xmlns="http://www.w3.org/2000/svg" width="496" height="160">
  <path d="M341 151.9V130h54.5v21.9H341zm10.52-4.07v-5.2h1.7l3.83 5.2H360l-4.34-5.67c1.15-.4 2.67-1.58 2.67-3.96 0-2.4-1.24-4.28-5.03-4.28l-4.22.04v13.87h2.44zm1.66-11.63c2 0 2.58.93 2.58 2.02 0 1.43-1.25 2.14-2.66 2.14h-1.58v-4.12c.65-.02 1.2-.04 1.66-.04zm21.3-2.22h-2.4v7.62c0 2.7-1 4.17-3.1 4.17-2.4 0-3.48-1.74-3.48-4.33v-7.46h-2.43v7.97c0 4.06 2.45 6.1 5.9 6.1 2.92 0 5.5-1.73 5.5-5.96v-8.2zm10.57 10.17c0 1.05-.87 1.62-2.02 1.62-1.07 0-2.38-.5-3.2-1.56l-1.38 1.7c.68 1.4 2.76 2.2 4.54 2.2 2.6 0 4.6-1.6 4.6-3.9 0-4.6-6.3-3.7-6.3-6.6 0-.9.7-1.5 1.9-1.5 1.1 0 1.7.4 2.4 1.1l1.3-1.8c-.88-.9-2.3-1.5-4-1.5-2.7 0-4.34 1.74-4.34 3.8 0 4.5 6.3 3.85 6.3 6.6zM341 108.05h11.12v-2.92h-8V90.28H341v17.77zm17.12 0h10.54v-2.92h-7.42v-4.6h6.4V97.6h-6.4v-4.4h7.16v-2.9h-10.28v17.76zm16.04 0h3.15l1.9-4.54h7.6l1.9 4.6h3.3l-7.5-17.8h-2.7l-7.5 17.8zm8.82-13.8l2.6 6.34h-5.22l2.62-6.4zm21.68 7.15h4.3v2.8c-.67.62-2.32 1.2-3.7 1.2-3.6 0-6-2.45-6-6.24 0-3.96 2.5-6.24 5.94-6.24 1.54 0 3.12.53 4 1.37l1.33-2.5c-1.45-1.2-3.18-1.8-5.72-1.8-5.4 0-8.8 4-8.8 9.1 0 5.5 3.5 9.1 9.3 9.1 2.2 0 5.1-.9 6.7-2.5v-7.3h-7.2v2.9zm28.76-11.12h-3.1v9.77c0 3.46-1.27 5.36-3.96 5.36-3.08 0-4.45-2.2-4.45-5.5v-9.6h-3.1v10.3c0 5.2 3.2 7.9 7.6 7.9 3.8 0 7.1-2.2 7.1-7.64V90.3zm7.9 17.77h10.54v-2.92h-7.4v-4.6h6.4V97.6h-6.4v-4.4h7.15v-2.9h-10.2v17.76zm-91.86-44.72c0 1.34-1.12 2.08-2.6 2.08-1.36 0-3.04-.6-4.08-2L341 65.6c.86 1.8 3.53 2.8 5.82 2.8 3.32 0 5.94-2.04 5.94-5.04 0-5.9-8.05-4.73-8.05-8.42 0-1.15 1-1.94 2.5-1.94s2.3.48 3.2 1.32l1.7-2.34c-1-1.15-2.9-1.9-5.1-1.9-3.4 0-5.5 2.24-5.5 4.9 0 5.8 8.1 4.93 8.1 8.44zm7.9 4.72h3.14l1.85-4.54h7.6l1.85 4.6h3.32l-7.5-17.8h-2.76l-7.5 17.8zm8.8-13.8l2.6 6.34h-5.22l2.62-6.4zm15.12 13.8h3.13V50.28h-3.1v17.77zm11.36 0h11.12v-2.92h-8V50.28h-3.12v17.77zm17.3 0h3.13V50.28h-3.13v17.77zm26.54 0V50.28h-2.92v12.36l-9.78-12.36h-2.5v17.77h2.94v-12.3l9.77 12.3h2.4zm15.68-6.65h4.3v2.8c-.67.62-2.32 1.2-3.7 1.2-3.6 0-6-2.45-6-6.24 0-3.96 2.5-6.24 5.93-6.24 1.5 0 3.1.53 4 1.37l1.3-2.5c-1.5-1.2-3.2-1.8-5.7-1.8-5.5 0-8.9 4-8.9 9.1 0 5.5 3.4 9.1 9.2 9.1 2.2 0 5.1-.9 6.6-2.5v-7.3H452v2.9zM356.2 29.05V11.28h-2.93v12.36l-9.78-12.36H341v17.77h2.92v-12.3l9.78 12.3h2.5zm5.93 0h3.15l1.86-4.54h7.6l1.84 4.6h3.33l-7.5-17.8h-2.7l-7.5 17.8zm8.82-13.78l2.6 6.32h-5.22l2.62-6.4zm10.9-1.07h5.77v14.85h3.13V14.2h5.76v-2.92h-14.6v2.92zm20.83 14.85h3.13V11.28h-3.1v17.77zm10.23-8.9c0 5.55 4 9.18 9.3 9.18 5.3 0 9.3-3.83 9.3-9.17 0-5.53-4-9.16-9.2-9.16-5.42 0-9.2 4-9.2 9.16zm3.3 0c0-3.67 2.6-6.23 6-6.23s6 2.56 6 6.24c0 3.5-2.2 6.25-5.9 6.25-3.3 0-5.9-2.6-5.9-6.2zm37.4 8.9V11.28h-2.9v12.36l-9.8-12.36h-2.5v17.77h3v-12.3l9.8 12.3h2.5zm6 0h3.2l1.87-4.54h7.6l1.83 4.6h3.33l-7.52-17.8H467l-7.52 17.8zm8.8-13.78l2.6 6.32h-5.2l2.6-6.4zm15 13.78h11.15v-2.92h-8V11.28h-3.12v17.77zM308.5 92.57h3.06l-2.2 37.6H235.7v-2.6l9.5-1.18v-110l-9.5-1.3v-2.3h44.5v2.3l-9.2 1.3v110.4h9.06c19.4 0 26.1-10.7 28.45-34.3zM129.47 103.3c9.33-.73 18.8 6.56 18.52 16.47-.6 10.5-9.2 15.46-19.7 17.64-8.9 1.7-13.5 6.8-10.8 17.8l-1 .3c-3.8-7.3-7.9-13.8-8.1-24.5 0-14.8 8.6-26.9 21-27.7zm-67.1-90.48h22.9v2.33l-9.2 1.9v113.7h-6.85l-59.8-99.7v94.9L19.5 128v2.18H-3.86v-2.2l9.2-2.03V17.05L-4 15.15V12.8h32.24l43.6 71V17.05l-9.47-1.9v-2.32zm128.07 25.3c-5.83 0-10.06-4.67-10.06-9.92 0-4.37 2.77-8.16 5.54-10.93 3.8-3.8 5.54-7.73 2.33-12.7l.6-.57c7.86 4.96 13.7 11.96 13.7 20.12 0 6.7-4.67 14-12.1 14zm-58.5-.28l54.42 26.24c23.63 11.37 27.27 26.97 27.27 37.32 0 8.9-2.48 16.77-4.52 20.4l-.8-.13c-.7-8.17-9-13.7-21.9-19.98l-46.2-22.6c-24.2-11.8-32.6-23.5-32.6-42.5 0-6.3 1.9-13.7 4.26-17.4l.72.1c-.57 9.5 12.55 15 19.55 18.4z" fill="#e8e9ed" fill-rule="evenodd"/>
</svg>
